<?xml version="1.0" encoding="UTF-8"?>
<svg width="13px" height="14px" viewBox="0 0 13 14" version="1.1" xmlns="http://www.w3.org/2000/svg" xmlns:xlink="http://www.w3.org/1999/xlink">
    <!-- Generator: Sketch 53 (72520) - https://sketchapp.com -->
    <title>Group 26 Copy 4</title>
    <desc>Created with Sketch.</desc>
    <g id="Grade-and-Remarks-template" stroke="none" stroke-width="1" fill="none" fill-rule="evenodd">
        <g id="Grade-scale-template-23" transform="translate(-224.000000, -592.000000)">
            <g id="Group-26-Copy-4" transform="translate(224.000000, 593.000000)">
                <path d="M2.3609887,10.7708882 L6.22760178,6.75 L6.22760178,0.00423722365 C9.43584442,0.123888514 12,2.76249894 12,6 C12,9.3137085 9.3137085,12 6,12 C4.63170159,12 3.37037991,11.5419782 2.3609887,10.7708882 Z" id="Combined-Shape" stroke="#007FA3" stroke-width="1.5" fill="#FFFFFF"></path>
                <circle id="Oval-Copy" fill="#F3F9FB" cx="6" cy="6" r="5.625"></circle>
            </g>
        </g>
    </g>
</svg>