<?xml version="1.0" encoding="UTF-8"?>
<svg width="500px" height="393px" viewBox="0 0 500 393" version="1.1" xmlns="http://www.w3.org/2000/svg" xmlns:xlink="http://www.w3.org/1999/xlink">
    <!-- Generator: Sketch 53 (72520) - https://sketchapp.com -->
    <title>Group 15</title>
    <desc>Created with Sketch.</desc>
    <g id="Grade-and-Remarks-template" stroke="none" stroke-width="1" fill="none" fill-rule="evenodd">
        <g id="Grade-scale-template-19" transform="translate(-403.000000, -366.000000)">
            <g id="Group-10" transform="translate(403.000000, 364.500000)">
                <g id="Group-14">
                    <g id="Group-13">
                        <g id="Group-12">
                            <g id="Group-15">
                                <path d="M445.752762,8.74839974 C445.300383,9.08083936 444.90837,9.45866197 444.802913,9.80641374 C444.697272,10.153981 444.363418,10.776429 444.830704,11.8193153 C445.467678,13.2106914 446.069317,12.6173918 446.56697,12.3908458 C447.06444,12.1639309 446.476605,11.2420659 446.401147,10.8339879 C446.325689,10.4260945 446.612061,9.97263355 447.139897,9.68539243 C447.66755,9.3983358 448.662673,9.00520105 449.130143,8.02300985 C449.59743,7.04063417 449.160327,5.98262017 448.858679,5.45370541 C448.557216,4.92479065 447.625036,4.49807986 447.079531,3.89703198 C446.572491,3.33823087 446.869169,2.93015293 447.004257,2.53683369 C447.149284,2.11491948 448.029564,1.70555016 448.331027,1.47881969 C448.632674,1.25227371 448.873771,0.874266622 448.527033,0.360479528 C448.180295,-0.153307566 447.969013,-0.0475984081 447.154989,0.224515044 C446.340781,0.496444012 445.767853,1.08586942 445.421115,1.49394736 C445.074378,1.90202529 444.667273,2.71818116 444.742547,3.53433704 C444.818005,4.35049291 445.309401,4.58700101 445.613625,4.87202832 C445.917665,5.15705563 446.476605,5.61992522 446.883525,5.86178335 C447.290813,6.10364147 447.350995,6.20935063 447.426269,6.42113791 C447.501727,6.63255623 447.53191,6.61742857 447.592276,6.95005267 C447.652458,7.28249229 447.471544,7.5392936 447.215355,7.81140705 C446.958983,8.08333602 446.205141,8.41596012 445.752762,8.74839974" id="Fill-167" fill="#60B345" opacity="0.765908062" transform="translate(446.961747, 6.354752) rotate(41.000000) translate(-446.961747, -6.354752) "></path>
                                <path d="M374.802913,392.806414 C374.697272,393.153981 374.363418,393.776429 374.830704,394.819315 C375.467678,396.210691 376.069317,395.617392 376.56697,395.390846 C377.06444,395.163931 376.476605,394.242066 376.401147,393.833988 C376.325689,393.426094 376.612061,392.972634 377.139897,392.685392 C377.66755,392.398336 378.662673,392.005201 379.130143,391.02301 C379.59743,390.040634 379.160327,388.98262 378.858679,388.453705 C378.557216,387.924791 377.625036,387.49808 377.079531,386.897032 C376.572491,386.338231 376.869169,385.930153 377.004257,385.536834 C377.149284,385.114919 378.029564,384.70555 378.331027,384.47882 C378.632674,384.252274 378.873771,383.874267 378.527033,383.36048 C378.180295,382.846692 377.969013,382.952402 377.154989,383.224515 C376.340781,383.496444 375.767853,384.085869 375.421115,384.493947 C375.074378,384.902025 374.667273,385.718181 374.742547,386.534337 C374.818005,387.350493 375.309401,387.587001 375.613625,387.872028 C375.917665,388.157056 376.476605,388.619925 376.883525,388.861783 C377.290813,389.103641 377.350995,389.209351 377.426269,389.421138 C377.501727,389.632556 377.53191,389.617429 377.592276,389.950053 C377.652458,390.282492 377.471544,390.539294 377.215355,390.811407 C376.958983,391.083336 376.205141,391.41596 375.752762,391.7484 C375.300383,392.080839 374.90837,392.458662 374.802913,392.806414 Z" id="Fill-167-Copy" fill="#60B345" opacity="0.765908062" transform="translate(376.961747, 389.354752) rotate(-54.000000) translate(-376.961747, -389.354752) "></path>
                                <path d="M0.00767520736,29.1474638 C-0.0309252772,29.263385 0.084719264,29.5210225 0.161920233,29.6498413 C0.239121202,29.77866 0.50901077,30.2811948 0.70185628,30.2727012 C0.894701791,30.2638931 1.06181364,30.087888 1.28039281,29.9463289 C1.49881507,29.8044552 1.7045274,29.5984081 2.01301746,29.3535109 C2.32150751,29.1086137 2.51435302,28.9411021 2.51435302,28.9411021 C2.51435302,28.9411021 3.10575638,29.843148 3.36293603,30.2211108 C3.61980186,30.5989163 3.70986965,30.7065012 3.94115874,30.7065012 C4.17260473,30.7065012 4.45551804,30.526092 4.68931772,30.2811948 C4.92311741,30.0364548 4.87965263,29.8044552 4.82818532,29.7014317 C4.77671801,29.5984081 4.77671801,29.5210225 4.63533981,29.3019205 C4.49411852,29.0828185 4.18547156,28.6189765 4.01114173,28.3451384 C3.83665498,28.0711429 3.69198162,27.9862074 3.70500536,27.934617 C3.71787219,27.8831839 4.51985218,27.2143959 4.78958483,26.9825535 C5.0594744,26.7505539 5.09807489,26.6733256 5.17527586,26.3897356 C5.25247682,26.1064601 5.13683228,25.9387912 4.93111994,25.6940513 C4.72540761,25.4493114 4.72540761,25.3333902 4.51985218,25.3204926 C4.31398293,25.307595 4.1084275,25.4620517 3.95402556,25.6166657 C3.79993745,25.7714369 3.45269,26.0547124 3.24713458,26.2365372 C3.04142224,26.4182047 2.79710941,26.6217352 2.79710941,26.6217352 C2.79710941,26.6217352 2.05161794,25.4106186 1.94884023,25.2044142 C1.8459056,24.9982098 1.62748335,24.9596742 1.44750467,25.0369026 C1.26752598,25.1141309 0.933302275,25.2558473 0.740456765,25.3848233 C0.547611254,25.5136421 0.547611254,25.5265397 0.611788483,25.8099725 C0.676122624,26.0934052 0.843234478,26.3769952 1.10041413,26.7892467 C1.35743687,27.2014983 1.65306009,27.6654975 1.65306009,27.6654975 C1.65306009,27.6654975 1.26752598,27.923135 1.04894682,28.142237 C0.83036765,28.361339 0.046275692,29.0313853 0.00767520736,29.1474638" id="Fill-182" fill="#BED236"></path>
                                <path d="M458.007675,156.147464 C457.969075,156.263385 458.084719,156.521022 458.16192,156.649841 C458.239121,156.77866 458.509011,157.281195 458.701856,157.272701 C458.894702,157.263893 459.061814,157.087888 459.280393,156.946329 C459.498815,156.804455 459.704527,156.598408 460.013017,156.353511 C460.321508,156.108614 460.514353,155.941102 460.514353,155.941102 C460.514353,155.941102 461.105756,156.843148 461.362936,157.221111 C461.619802,157.598916 461.70987,157.706501 461.941159,157.706501 C462.172605,157.706501 462.455518,157.526092 462.689318,157.281195 C462.923117,157.036455 462.879653,156.804455 462.828185,156.701432 C462.776718,156.598408 462.776718,156.521022 462.63534,156.30192 C462.494119,156.082818 462.185472,155.618977 462.011142,155.345138 C461.836655,155.071143 461.691982,154.986207 461.705005,154.934617 C461.717872,154.883184 462.519852,154.214396 462.789585,153.982554 C463.059474,153.750554 463.098075,153.673326 463.175276,153.389736 C463.252477,153.10646 463.136832,152.938791 462.93112,152.694051 C462.725408,152.449311 462.725408,152.33339 462.519852,152.320493 C462.313983,152.307595 462.108428,152.462052 461.954026,152.616666 C461.799937,152.771437 461.45269,153.054712 461.247135,153.236537 C461.041422,153.418205 460.797109,153.621735 460.797109,153.621735 C460.797109,153.621735 460.051618,152.410619 459.94884,152.204414 C459.845906,151.99821 459.627483,151.959674 459.447505,152.036903 C459.267526,152.114131 458.933302,152.255847 458.740457,152.384823 C458.547611,152.513642 458.547611,152.52654 458.611788,152.809972 C458.676123,153.093405 458.843234,153.376995 459.100414,153.789247 C459.357437,154.201498 459.65306,154.665497 459.65306,154.665497 C459.65306,154.665497 459.267526,154.923135 459.048947,155.142237 C458.830368,155.361339 458.046276,156.031385 458.007675,156.147464" id="Fill-182-Copy" fill="#BED236"></path>
                                <path d="M108.007675,383.147464 C107.969075,383.263385 108.084719,383.521022 108.16192,383.649841 C108.239121,383.77866 108.509011,384.281195 108.701856,384.272701 C108.894702,384.263893 109.061814,384.087888 109.280393,383.946329 C109.498815,383.804455 109.704527,383.598408 110.013017,383.353511 C110.321508,383.108614 110.514353,382.941102 110.514353,382.941102 C110.514353,382.941102 111.105756,383.843148 111.362936,384.221111 C111.619802,384.598916 111.70987,384.706501 111.941159,384.706501 C112.172605,384.706501 112.455518,384.526092 112.689318,384.281195 C112.923117,384.036455 112.879653,383.804455 112.828185,383.701432 C112.776718,383.598408 112.776718,383.521022 112.63534,383.30192 C112.494119,383.082818 112.185472,382.618977 112.011142,382.345138 C111.836655,382.071143 111.691982,381.986207 111.705005,381.934617 C111.717872,381.883184 112.519852,381.214396 112.789585,380.982554 C113.059474,380.750554 113.098075,380.673326 113.175276,380.389736 C113.252477,380.10646 113.136832,379.938791 112.93112,379.694051 C112.725408,379.449311 112.725408,379.33339 112.519852,379.320493 C112.313983,379.307595 112.108428,379.462052 111.954026,379.616666 C111.799937,379.771437 111.45269,380.054712 111.247135,380.236537 C111.041422,380.418205 110.797109,380.621735 110.797109,380.621735 C110.797109,380.621735 110.051618,379.410619 109.94884,379.204414 C109.845906,378.99821 109.627483,378.959674 109.447505,379.036903 C109.267526,379.114131 108.933302,379.255847 108.740457,379.384823 C108.547611,379.513642 108.547611,379.52654 108.611788,379.809972 C108.676123,380.093405 108.843234,380.376995 109.100414,380.789247 C109.357437,381.201498 109.65306,381.665497 109.65306,381.665497 C109.65306,381.665497 109.267526,381.923135 109.048947,382.142237 C108.830368,382.361339 108.046276,383.031385 108.007675,383.147464" id="Fill-182-Copy-2" fill="#BED236"></path>
                                <path d="M209.24544,21.3722066 C209.568979,21.260037 209.917221,21.1851956 209.917221,21.1851956 C209.917221,21.1851956 209.867445,21.7212815 209.854909,21.9082925 C209.842374,22.0954883 209.867445,22.7561249 209.830206,22.8184003 C209.792598,22.8808605 209.755359,23.0303584 209.755359,23.0303584 C209.755359,23.0303584 209.655809,22.8808605 209.444541,22.7561249 C209.233088,22.6313893 209.108466,22.5567328 209.033988,22.4443783 C208.959509,22.3322087 208.809999,22.2449862 208.635971,22.1451977 C208.461942,22.0454092 208.08955,21.6911602 208.125867,21.6839532 C208.561492,21.5965459 208.922086,21.4843763 209.24544,21.3722066 Z M206.944537,22.6064422 C207.155989,22.7187967 207.30513,23.0055961 207.479343,23.0928186 C207.653556,23.1800412 208.188179,23.7784024 208.724276,24.1899375 C209.260373,24.6012877 209.757203,24.8245182 209.929572,24.9004684 C210.186007,25.0137468 210.210157,25.0046919 210.508623,25.1292427 C210.80709,25.2537935 210.999185,24.9004684 211.086384,24.7882987 C211.173399,24.6761291 211.248061,24.2146998 211.33526,23.8408626 C211.42209,23.4668406 211.446978,22.8433475 211.434626,22.4693255 C211.417297,21.9458056 211.48901,21.5398143 211.476474,21.1907394 C211.464122,20.8416646 211.512054,20.5783339 211.545606,20.3591688 C211.573628,20.1773321 211.644604,19.7565573 211.395912,19.4699427 C211.147221,19.1831432 210.874748,19.3400328 210.775197,19.3400328 C210.675831,19.3400328 210.178264,19.4895308 209.780431,19.5893192 C209.38223,19.6891077 208.922086,19.8387904 208.688696,19.8635527 C208.45549,19.8884999 208.063925,20.0381826 207.790346,20.1379711 C207.516767,20.2375747 207.056438,20.4122046 206.683125,20.4620988 C206.31018,20.5118082 206.0696,20.6727634 205.93705,20.8237396 C205.823673,20.9523559 205.912163,21.6713873 206.011713,21.7462286 C206.111079,21.82107 206.17339,22.0330281 206.285292,22.1451977 C206.397194,22.2575522 206.733084,22.4942726 206.944537,22.6064422 L206.944537,22.6064422 Z" id="Fill-184" fill="#60B345" opacity="0.433933424"></path>
                                <path d="M497.361545,281.074999 C497.685084,280.96283 498.033325,280.887988 498.033325,280.887988 C498.033325,280.887988 497.98355,281.424074 497.971014,281.611085 C497.958478,281.798281 497.98355,282.458918 497.946311,282.521193 C497.908703,282.583653 497.871464,282.733151 497.871464,282.733151 C497.871464,282.733151 497.771914,282.583653 497.560646,282.458918 C497.349193,282.334182 497.224571,282.259525 497.150093,282.147171 C497.075614,282.035001 496.926104,281.947779 496.752076,281.84799 C496.578047,281.748202 496.205655,281.393953 496.241972,281.386746 C496.677597,281.299339 497.038191,281.187169 497.361545,281.074999 Z M495.060641,282.309235 C495.272094,282.421589 495.421235,282.708389 495.595448,282.795611 C495.769661,282.882834 496.304283,283.481195 496.84038,283.89273 C497.376478,284.30408 497.873308,284.527311 498.045677,284.603261 C498.302111,284.716539 498.326262,284.707485 498.624728,284.832035 C498.923195,284.956586 499.11529,284.603261 499.202489,284.491091 C499.289503,284.378922 499.364166,283.917492 499.451365,283.543655 C499.538195,283.169633 499.563083,282.54614 499.550731,282.172118 C499.533402,281.648598 499.605115,281.242607 499.592579,280.893532 C499.580227,280.544457 499.628159,280.281127 499.661711,280.061962 C499.689733,279.880125 499.760708,279.45935 499.512017,279.172735 C499.263325,278.885936 498.990852,279.042826 498.891302,279.042826 C498.791936,279.042826 498.294369,279.192323 497.896536,279.292112 C497.498335,279.3919 497.038191,279.541583 496.8048,279.566345 C496.571595,279.591293 496.18003,279.740975 495.906451,279.840764 C495.632872,279.940367 495.172543,280.114997 494.79923,280.164892 C494.426284,280.214601 494.185704,280.375556 494.053155,280.526532 C493.939778,280.655149 494.028267,281.37418 494.127818,281.449021 C494.227184,281.523863 494.289495,281.735821 494.401397,281.84799 C494.513299,281.960345 494.849189,282.197065 495.060641,282.309235 L495.060641,282.309235 Z" id="Fill-184-Copy" fill="#60B345" opacity="0.433933424"></path>
                                <path d="M43.4202028,225.004476 C43.5441537,224.680059 43.7630297,224.451044 44.1153242,224.346027 C44.4677433,224.24101 44.8200378,224.2505 44.9818591,224.307816 C45.1436803,224.365008 45.1912675,224.451044 45.4008005,224.823162 C45.5840485,225.148952 45.6215452,225.42342 45.6153165,225.640447 C45.6144445,225.671416 45.6127004,225.70126 45.610209,225.729855 C45.5912738,225.958995 45.5246268,226.226221 45.324686,226.369448 C45.1246206,226.512551 44.6565971,226.655779 44.3574955,226.550762 C44.0581449,226.445745 43.7726219,226.235711 43.5630889,225.911294 C43.4321619,225.708502 43.3607811,225.531684 43.3557982,225.348497 C43.352933,225.23861 43.3738614,225.126226 43.4202028,225.004476 Z M42.1891652,224.57192 C42.0450334,224.903205 42.00218,225.088265 42.0000623,225.397946 C41.9998131,225.442151 42.0003114,225.488853 42.0015572,225.539051 C42.0110248,225.940015 42.1253835,226.159414 42.2872047,226.436255 C42.449026,226.713095 42.8109127,227.18074 43.2203865,227.486051 C43.6297358,227.791612 44.1058566,228.011137 44.6391567,227.992031 C45.1723323,227.972926 45.324686,227.925225 45.7341598,227.696085 C46.1436337,227.467071 46.2006884,227.371544 46.3054549,227.20946 C46.4100969,227.047127 46.4196891,227.104443 46.6005701,226.808497 C46.7815757,226.512676 46.8480981,225.739471 46.8480981,225.300422 C46.8480981,224.861248 46.6290975,224.403094 46.4482164,224.116763 C46.2673354,223.830557 46.2577432,223.72554 45.8292096,223.372402 C45.4008005,223.01914 44.7921333,223.006778 44.2296829,223.00016 C43.6426915,222.993417 43.2965011,223.200704 42.9442066,223.467804 C42.5919121,223.735155 42.3538517,224.193309 42.1891652,224.57192 L42.1891652,224.57192 Z" id="Fill-267" fill="#60B345" opacity="0.731317935"></path>
                                <g id="Group-6" transform="translate(74.273408, 97.938697)" fill="#A6CFDA" opacity="0.720901268">
                                    <path d="M5.53389982,0 L13.7484489,2.10942375e-15 C14.1424006,9.87357808e-16 14.4617615,0.31936095 14.4617615,0.713312647 L14.4617615,0.713312647 C14.4617615,1.10726434 14.1424006,1.42662529 13.7484489,1.42662529 L5.53389982,1.42662529 C5.13994812,1.42662529 4.82058717,1.10726434 4.82058717,0.713312647 L4.82058717,0.713312647 C4.82058717,0.31936095 5.13994812,7.23677526e-17 5.53389982,0 Z" id="Rectangle-15"></path>
                                    <path d="M2.64154751,3.56656323 L6.99962682,3.56656323 C7.39357852,3.56656323 7.71293947,3.88592418 7.71293947,4.27987588 L7.71293947,4.27987588 C7.71293947,4.67382758 7.39357852,4.99318853 6.99962682,4.99318853 L2.64154751,4.99318853 C2.24759582,4.99318853 1.92823487,4.67382758 1.92823487,4.27987588 L1.92823487,4.27987588 C1.92823487,3.88592418 2.24759582,3.56656323 2.64154751,3.56656323 Z" id="Rectangle-15-Copy-2"></path>
                                    <path d="M9.87242827,3.56656323 L14.2305076,3.56656323 C14.6244593,3.56656323 14.9438202,3.88592418 14.9438202,4.27987588 L14.9438202,4.27987588 C14.9438202,4.67382758 14.6244593,4.99318853 14.2305076,4.99318853 L9.87242827,4.99318853 C9.47847657,4.99318853 9.15911562,4.67382758 9.15911562,4.27987588 L9.15911562,4.27987588 C9.15911562,3.88592418 9.47847657,3.56656323 9.87242827,3.56656323 Z" id="Rectangle-15-Copy-3"></path>
                                    <rect id="Rectangle-15-Copy" x="0" y="0" width="3.37441102" height="1.42662529" rx="0.713312647"></rect>
                                </g>
                                <g id="Group-6-Copy" transform="translate(178.500000, 119.843336) scale(-1, 1) translate(-178.500000, -119.843336) translate(174.000000, 117.843336)" fill="#A6CFDA" opacity="0.720901268">
                                    <path d="M3.20309827,0 L8.18266952,-1.11022302e-16 C8.37964537,-1.47206179e-16 8.53932584,0.159680475 8.53932584,0.356656323 L8.53932584,0.356656323 C8.53932584,0.553632172 8.37964537,0.713312647 8.18266952,0.713312647 L3.20309827,0.713312647 C3.00612242,0.713312647 2.84644195,0.553632172 2.84644195,0.356656323 L2.84644195,0.356656323 C2.84644195,0.159680475 3.00612242,3.61838763e-17 3.20309827,0 Z" id="Rectangle-15"></path>
                                    <path d="M1.7798773,2.13993794 L4.62461708,2.13993794 C4.82159293,2.13993794 4.98127341,2.29961841 4.98127341,2.49659426 L4.98127341,2.49659426 C4.98127341,2.69357011 4.82159293,2.85325059 4.62461708,2.85325059 L1.7798773,2.85325059 C1.58290145,2.85325059 1.42322097,2.69357011 1.42322097,2.49659426 L1.42322097,2.49659426 C1.42322097,2.29961841 1.58290145,2.13993794 1.7798773,2.13993794 Z" id="Rectangle-15-Copy-2"></path>
                                    <path d="M5.33792973,2.13993794 L8.18266952,2.13993794 C8.37964537,2.13993794 8.53932584,2.29961841 8.53932584,2.49659426 L8.53932584,2.49659426 C8.53932584,2.69357011 8.37964537,2.85325059 8.18266952,2.85325059 L5.33792973,2.85325059 C5.14095388,2.85325059 4.98127341,2.69357011 4.98127341,2.49659426 L4.98127341,2.49659426 C4.98127341,2.29961841 5.14095388,2.13993794 5.33792973,2.13993794 Z" id="Rectangle-15-Copy-3"></path>
                                    <path d="M0.356656323,0 L1.77817514,-3.33066907e-16 C1.97515099,-1.94301086e-16 2.13483146,0.159680475 2.13483146,0.356656323 L2.13483146,0.356656323 C2.13483146,0.553632172 1.97515099,0.713312647 1.77817514,0.713312647 L0.356656323,0.713312647 C0.159680475,0.713312647 2.41225842e-17,0.553632172 0,0.356656323 L0,0.356656323 C-2.41225842e-17,0.159680475 0.159680475,-1.93272749e-17 0.356656323,-5.55111512e-17 Z" id="Rectangle-15-Copy"></path>
                                </g>
                            </g>
                        </g>
                    </g>
                </g>
            </g>
        </g>
    </g>
</svg>