<svg xmlns="http://www.w3.org/2000/svg" width="18" height="18" viewBox="0 0 18 18">
    <path fill="#FFF" fill-rule="evenodd" d="M10.415 9.001l7.294-7.294A.999.999 0 1 0 16.295.293L9.001 7.587 1.707.293A.999.999 0 1 0 .293 1.707l7.294 7.294-7.294 7.294a.999.999 0 1 0 1.414 1.414l7.294-7.294 7.294 7.294a.993.993 0 0 0 .707.293.999.999 0 0 0 .707-1.707l-7.294-7.294z"/>
</svg>
