<svg xmlns="http://www.w3.org/2000/svg" width="19" height="16" viewBox="0 0 19 16">
    <g fill="none" fill-rule="nonzero">
        <rect width="13" height="2" fill="#73797B" rx="1"/>
        <rect width="13" height="2" y="4" fill="#73797B" rx="1"/>
        <rect width="13" height="2" y="8" fill="#73797B" rx="1"/>
        <circle cx="12.5" cy="9.5" r="6.5" fill="#FFF"/>
        <g fill="#73797B">
            <path stroke="#73797B" stroke-width=".5" d="M11.085 7.922c0-.75.635-1.36 1.415-1.36s1.415.61 1.415 1.36V9h.585V7.922c0-1.06-.897-1.922-2-1.922s-2 .862-2 1.922V9h.585V7.922z"/>
            <path d="M9 10v6h7v-6H9zm3.833 3.173v1.147h-.666v-1.147a.749.749 0 0 1-.445-.678c0-.414.348-.75.778-.75.43 0 .778.336.778.75 0 .3-.182.557-.445.678z"/>
        </g>
    </g>
</svg>
