<svg xmlns="http://www.w3.org/2000/svg" width="19" height="22" viewBox="0 0 19 22">
    <g fill="none" fill-rule="evenodd">
        <path stroke="#505759" stroke-width="1.5" d="M8.291 3.75H2C1.31 3.75.75 4.31.75 5v15c0 .69.56 1.25 1.25 1.25h11c.69 0 1.25-.56 1.25-1.25V9.709A6.753 6.753 0 0 1 8.291 3.75z"/>
        <g fill="#505759">
            <path d="M13.925 3.3c0-.758.617-1.375 1.375-1.375s1.375.617 1.375 1.375-.617 1.375-1.375 1.375A1.377 1.377 0 0 1 13.925 3.3zm3.752-.55a3.53 3.53 0 0 0-.214-.641l.56-.559a.138.138 0 0 0 0-.194l-.779-.778a.137.137 0 0 0-.194 0l-.56.559a3.546 3.546 0 0 0-.64-.214V.137A.138.138 0 0 0 15.712 0h-.825a.138.138 0 0 0-.137.138v.785a3.541 3.541 0 0 0-.641.214l-.56-.56a.137.137 0 0 0-.194 0l-.778.779a.136.136 0 0 0 0 .194l.56.559a3.57 3.57 0 0 0-.215.641h-.785a.138.138 0 0 0-.137.138v.825c0 .075.062.137.137.137h.785c.056.218.126.459.215.641l-.56.56a.138.138 0 0 0 0 .194l.778.777a.142.142 0 0 0 .195 0l.559-.56c.182.09.423.16.641.216v.785c0 .075.062.137.137.137h.825a.138.138 0 0 0 .138-.137v-.785a3.56 3.56 0 0 0 .64-.215l.56.56c.054.053.14.053.195 0l.777-.778a.137.137 0 0 0 0-.195l-.559-.559c.089-.182.16-.423.215-.641h.784a.138.138 0 0 0 .138-.138v-.825a.138.138 0 0 0-.138-.137h-.785z"/>
            <path fill-rule="nonzero" d="M7 17c.414 0 .75-.326.75-.727v-3.091C7.75 11.979 6.74 11 5.5 11s-2.25.979-2.25 2.182v3.09c0 .402.336.728.75.728s.75-.326.75-.727v-1.055h1.5v1.055c0 .401.336.727.75.727zm-2.25-3.236v-.582a.74.74 0 0 1 .75-.727.74.74 0 0 1 .75.727v.582h-1.5zm5.75 2.486a.75.75 0 0 1-.75-.75v-.75H9a.75.75 0 1 1 0-1.5h.75v-.75a.75.75 0 1 1 1.5 0v.75H12a.75.75 0 1 1 0 1.5h-.75v.75a.75.75 0 0 1-.75.75z"/>
        </g>
    </g>
</svg>
