<?xml version="1.0" encoding="UTF-8"?>
<svg width="19px" height="18px" viewBox="0 0 19 18" version="1.1" xmlns="http://www.w3.org/2000/svg" xmlns:xlink="http://www.w3.org/1999/xlink">
    <!-- Generator: Sketch 53 (72520) - https://sketchapp.com -->
    <title>Group 29</title>
    <desc>Created with Sketch.</desc>
    <g id="Page-1" stroke="none" stroke-width="1" fill="none" fill-rule="evenodd">
        <g id="Setup-flow-Assets" transform="translate(-814.000000, -144.000000)">
            <g id="Group-29" transform="translate(814.000000, 144.000000)">
                <rect id="Rectangle" fill="#FFFFFF" x="3" y="4" width="9" height="1" rx="0.5"></rect>
                <rect id="Rectangle-Copy-7" fill="#FFFFFF" x="3" y="14" width="9" height="1" rx="0.5"></rect>
                <rect id="Rectangle-Copy-8" fill="#FFFFFF" x="3" y="11" width="9" height="1" rx="0.5"></rect>
                <rect id="Rectangle-Copy-9" fill="#FFFFFF" x="3" y="7" width="9" height="1" rx="0.5"></rect>
                <path d="M2,0.5 C1.17157288,0.5 0.5,1.17157288 0.5,2 L0.5,16 C0.5,16.8284271 1.17157288,17.5 2,17.5 L13,17.5 C13.8284271,17.5 14.5,16.8284271 14.5,16 L14.5,2 C14.5,1.17157288 13.8284271,0.5 13,0.5 L2,0.5 Z" id="Combined-Shape" stroke="#FFFFFF"></path>
                <circle id="Oval-Copy-7" fill="#007FA3" cx="12" cy="9" r="5"></circle>
                <path d="M15.8616352,11.4570231 L15.3647799,11.4570231 L15.1886792,11.2985325 C15.8050314,10.6293501 16.1761006,9.760587 16.1761006,8.81551363 C16.1761006,6.7081761 14.3459119,5 12.0880503,5 C9.83018868,5 8,6.7081761 8,8.81551363 C8,10.9228512 9.83018868,12.6310273 12.0880503,12.6310273 C13.1006289,12.6310273 14.0314465,12.284696 14.7484277,11.709434 L14.918239,11.8737945 L14.918239,12.3375262 L18.0628931,15.2666667 L19,14.3920335 L15.8616352,11.4570231 L15.8616352,11.4570231 Z M12.0880503,11.4570231 C10.5220126,11.4570231 9.25786164,10.2771488 9.25786164,8.81551363 C9.25786164,7.35387841 10.5220126,6.17400419 12.0880503,6.17400419 C13.6540881,6.17400419 14.918239,7.35387841 14.918239,8.81551363 C14.918239,10.2771488 13.6540881,11.4570231 12.0880503,11.4570231 L12.0880503,11.4570231 Z" id="Icon-Copy" fill="#FFFFFF"></path>
            </g>
        </g>
    </g>
</svg>