<?xml version="1.0" encoding="UTF-8"?>
<svg width="17px" height="21px" viewBox="0 0 17 21" version="1.1" xmlns="http://www.w3.org/2000/svg" xmlns:xlink="http://www.w3.org/1999/xlink">
    <!-- Generator: Sketch 52.4 (67378) - http://www.bohemiancoding.com/sketch -->
    <title>Group 7</title>
    <desc>Created with Sketch.</desc>
    <g id="Symbols" stroke="none" stroke-width="1" fill="none" fill-rule="evenodd">
        <g id="left-menu-other-reports" transform="translate(-24.000000, -567.000000)">
            <g id="Group-11" transform="translate(0.000000, 87.000000)">
                <g id="Group-7" transform="translate(24.000000, 480.000000)">
                    <g id="Group-9">
                        <path d="M11.5,0.5 L3,0.5 C2.72385763,0.5 2.5,0.723857625 2.5,1 L2.5,18 C2.5,18.2761424 2.72385763,18.5 3,18.5 L16,18.5 C16.2761424,18.5 16.5,18.2761424 16.5,18 L16.5,5.5 L11.5,5.5 L11.5,0.5 Z M12.5,5.5 L16.5,5.5 L16.5,18.5000335 L2.5,18.4990954 L2.5,0.5 L11.6592,0.5 L11.5179658,4.5 L12.5,4.5 L12.5,5.5 Z" id="Combined-Shape" stroke="#007FA3" fill="#007FA3"></path>
                        <polygon id="Triangle" stroke="#007FA3" fill="#FFFFFF" transform="translate(14.400261, 2.610586) rotate(90.000000) translate(-14.400261, -2.610586) " points="15.789675 1.21032503 15.789675 4.01084661 13.0108466 4.01084661"></polygon>
                        <g id="Group-7" transform="translate(0.000000, 2.000000)">
                            <path d="M9.5,0.5 L1,0.5 C0.723857625,0.5 0.5,0.723857625 0.5,1 L0.5,18 C0.5,18.2761424 0.723857625,18.5 1,18.5 L14,18.5 C14.2761424,18.5 14.5,18.2761424 14.5,18 L14.5,5.5 L9.5,5.5 L9.5,0.5 Z" id="Combined-Shape" stroke="#007FA3" fill="#007FA3"></path>
                            <polygon id="Triangle" stroke="#007FA3" fill="#FFFFFF" transform="translate(12.400261, 2.610586) rotate(90.000000) translate(-12.400261, -2.610586) " points="13.789675 1.21032503 13.789675 4.01084661 11.0108466 4.01084661"></polygon>
                            <polygon id="Shape" fill="#FFFFFF" fill-rule="nonzero" points="9.47065563 7.87969713 9.98551362 7.87969713 7.99566461 9.76383246 6.43975672 8.2905157 3 11.5479462 3.65681089 12.170068 6.43975672 9.53467135 7.99566461 11.0079001 10.6424174 8.50164301 10.6424174 8.98811552 11.5714286 8.98811552 11.5714286 7 9.47065563 7"></polygon>
                        </g>
                    </g>
                </g>
            </g>
        </g>
    </g>
</svg>