<svg xmlns="http://www.w3.org/2000/svg" width="15" height="17" viewBox="0 0 15 17">
    <g fill="none" fill-rule="evenodd">
        <path d="M-1-1h18v18H-1z"/>
        <path fill="#C32125" d="M11 4h3.272L11 .727z"/>
        <path fill="#E94B51" d="M7.213 6.626c-.007-.602-.206-.602-.292-.602-.159 0-.318.25-.318.807 0 .507.152 1.041.283 1.346.126-.399.332-1.125.327-1.55M2.612 14.64c-.02.077.006.128.089.173a.378.378 0 0 0 .288.029c.515-.134 1.162-1.031 1.507-1.587-.602.255-1.78.96-1.884 1.385M6.75 11.56l-.197.411a8.41 8.41 0 0 1 .926-.26c.439-.1.744-.158.933-.19-.246-.266-.729-.81-1.081-1.348-.126.332-.356.92-.581 1.387M9.755 11.844c.714.538 1.605.775 1.992.626.141-.053.21-.156.21-.313a.236.236 0 0 0-.105-.197c-.362-.272-1.462-.198-2.097-.116"/>
        <path fill="#E94B51" d="M12.8 12.792c-.224.235-.614.363-1.158.382-1.22.032-2.43-.974-2.695-1.208-.16.026-.578.093-.934.173-.4.09-1.603.395-1.873.464-.11.179-.546.864-1.383 1.885C4.23 15.132 3.58 15.5 2.97 15.5h-.012c-.33-.003-.62-.12-.773-.312-.463-.586.022-1.143.616-1.657.632-.547 1.967-.998 2.248-1.09.082-.142.367-.652.751-1.49.404-.88.725-1.774.797-1.977-.092-.2-.459-1.044-.54-1.792-.082-.754-.008-1.185.244-1.441.154-.157.376-.238.658-.241h.016c.974 0 1.122.835 1.141 1.564.021.85-.412 2.12-.505 2.383.393.754 1.337 1.696 1.564 1.917.184-.03.716-.093 1.977-.122l.102-.001c1.564 0 1.726.832 1.743 1.002l-.133.013.133-.012c.01.092.013.33-.196.548zM10.5 5a.499.499 0 0 1-.5-.5V0H.5a.5.5 0 0 0-.5.5v16c0 .277.223.5.5.5h14a.5.5 0 0 0 .5-.5V5h-4.5z"/>
    </g>
</svg>
