<?xml version="1.0" encoding="UTF-8"?>
<svg width="15px" height="21px" viewBox="0 0 15 21" version="1.1" xmlns="http://www.w3.org/2000/svg" xmlns:xlink="http://www.w3.org/1999/xlink">
    <!-- Generator: Sketch 53 (72520) - https://sketchapp.com -->
    <title>icon-grade-temp copy 15</title>
    <desc>Created with Sketch.</desc>
    <g id="Grade-and-Remarks-template" stroke="none" stroke-width="1" fill="none" fill-rule="evenodd">
        <g id="Grade-scale-template-21" transform="translate(-224.000000, -804.000000)">
            <g id="icon-grade-temp" transform="translate(224.000000, 804.000000)">
                <g id="Group-26">
                    <g id="exam-(1)">
                        <rect id="Rectangle" fill="#999999" fill-rule="nonzero" x="0" y="4.28571429" width="10.7142857" height="13.5714286" rx="1"></rect>
                        <circle id="Oval-4" fill="#FFFFFF" fill-rule="nonzero" cx="10.7142857" cy="4.28571429" r="4.28571429"></circle>
                        <path d="M9.94642857,4.5 C9.94642857,3.95844643 10.3870179,3.51785714 10.9285714,3.51785714 C11.470125,3.51785714 11.9107143,3.95844643 11.9107143,4.5 C11.9107143,5.04155357 11.470125,5.48214286 10.9285714,5.48214286 C10.3870179,5.48214286 9.94642857,5.04155357 9.94642857,4.5 Z M12.6266964,4.10714286 C12.5874107,3.95196429 12.5375179,3.77969643 12.473875,3.64907143 L12.8730179,3.250125 C12.8914821,3.23166071 12.9018929,3.20671429 12.9018929,3.18058929 C12.9018929,3.15446429 12.8914821,3.12951786 12.8730179,3.11125 L12.3173214,2.55555357 C12.2790179,2.51705357 12.2169464,2.51705357 12.1784464,2.55555357 L11.7791071,2.95469643 C11.6486786,2.89125 11.4764107,2.84135714 11.3214286,2.80207143 L11.3214286,2.24107143 C11.3214286,2.18685714 11.2774286,2.14285714 11.2232143,2.14285714 L10.6339286,2.14285714 C10.5797143,2.14285714 10.5357143,2.18685714 10.5357143,2.24107143 L10.5357143,2.80207143 C10.3805357,2.84135714 10.2082679,2.89125 10.0778393,2.95469643 L9.6785,2.55555357 C9.64,2.51705357 9.57792857,2.51705357 9.539625,2.55555357 L8.98392857,3.11125 C8.96546429,3.12951786 8.95505357,3.15446429 8.95505357,3.18058929 C8.95505357,3.20671429 8.96546429,3.23166071 8.98392857,3.250125 L9.38326786,3.64926786 C9.32001786,3.7795 9.26973214,3.95176786 9.23025,4.10714286 L8.66964286,4.10714286 C8.61542857,4.10714286 8.57142857,4.15114286 8.57142857,4.20535714 L8.57142857,4.79464286 C8.57142857,4.84885714 8.61542857,4.89285714 8.66964286,4.89285714 L9.23025,4.89285714 C9.26973214,5.04823214 9.32001786,5.22069643 9.38326786,5.35073214 L8.98392857,5.75007143 C8.96546429,5.76853571 8.95505357,5.79348214 8.95505357,5.81960714 C8.95505357,5.84573214 8.96546429,5.87067857 8.98392857,5.88894643 L9.539625,6.44444643 C9.57635714,6.481375 9.64157143,6.48117857 9.6785,6.44444643 L10.0776429,6.04491071 C10.207875,6.10855357 10.3803393,6.15883929 10.5357143,6.19832143 L10.5357143,6.75892857 C10.5357143,6.81314286 10.5797143,6.85714286 10.6339286,6.85714286 L11.2232143,6.85714286 C11.2774286,6.85714286 11.3214286,6.81314286 11.3214286,6.75892857 L11.3214286,6.19832143 C11.4768036,6.15883929 11.6490714,6.10855357 11.7791071,6.04530357 L12.1786429,6.44444643 C12.2171429,6.48294643 12.2792143,6.48294643 12.3175179,6.44444643 L12.8730179,5.88894643 C12.9115179,5.85064286 12.9115179,5.78857143 12.8730179,5.75007143 L12.473875,5.35073214 C12.537125,5.22069643 12.5874107,5.04823214 12.6268929,4.89285714 L13.1875,4.89285714 C13.2417143,4.89285714 13.2857143,4.84885714 13.2857143,4.79464286 L13.2857143,4.20535714 C13.2857143,4.15114286 13.2417143,4.10714286 13.1875,4.10714286 L12.6266964,4.10714286 Z" id="icon" fill="#999999"></path>
                        <path d="M4.28571429,12.8571429 C4.58158929,12.8571429 4.82142857,12.6245714 4.82142857,12.3376623 L4.82142857,10.1298701 C4.82142857,9.27054545 4.10046429,8.57142857 3.21428571,8.57142857 C2.32810714,8.57142857 1.60714286,9.27054545 1.60714286,10.1298701 L1.60714286,12.3376623 C1.60714286,12.6245714 1.84698214,12.8571429 2.14285714,12.8571429 C2.43873214,12.8571429 2.67857143,12.6245714 2.67857143,12.3376623 L2.67857143,11.5844156 L3.75,11.5844156 L3.75,12.3376623 C3.75,12.6245714 3.98983929,12.8571429 4.28571429,12.8571429 Z M2.67857143,10.5454545 L2.67857143,10.1298701 C2.67857143,9.84342857 2.91889286,9.61038961 3.21428571,9.61038961 C3.50967857,9.61038961 3.75,9.84342857 3.75,10.1298701 L3.75,10.5454545 L2.67857143,10.5454545 Z" id="Shape" fill="#FFFFFF" fill-rule="nonzero"></path>
                        <path d="M7.5,12.3214286 C7.795875,12.3214286 8.03571429,12.0815893 8.03571429,11.7857143 L8.03571429,11.25 L8.57142857,11.25 C8.86730357,11.25 9.10714286,11.0101607 9.10714286,10.7142857 C9.10714286,10.4184107 8.86730357,10.1785714 8.57142857,10.1785714 L8.03571429,10.1785714 L8.03571429,9.64285714 C8.03571429,9.34698214 7.795875,9.10714286 7.5,9.10714286 C7.204125,9.10714286 6.96428571,9.34698214 6.96428571,9.64285714 L6.96428571,10.1785714 L6.42857143,10.1785714 C6.13269643,10.1785714 5.89285714,10.4184107 5.89285714,10.7142857 C5.89285714,11.0101607 6.13269643,11.25 6.42857143,11.25 L6.96428571,11.25 L6.96428571,11.7857143 C6.96428571,12.0815893 7.204125,12.3214286 7.5,12.3214286 Z" id="Shape" fill="#FFFFFF" fill-rule="nonzero"></path>
                    </g>
                    <circle id="Oval" stroke="#FFFFFF" fill="#007FA3" cx="10.5" cy="16.5" r="3.5"></circle>
                </g>
            </g>
        </g>
    </g>
</svg>