<?xml version="1.0" encoding="UTF-8"?>
<svg width="19px" height="20px" viewBox="0 0 19 20" version="1.1" xmlns="http://www.w3.org/2000/svg" xmlns:xlink="http://www.w3.org/1999/xlink">
    <!-- Generator: Sketch 52.4 (67378) - http://www.bohemiancoding.com/sketch -->
    <title>study</title>
    <desc>Created with Sketch.</desc>
    <g id="Symbols" stroke="none" stroke-width="1" fill="none" fill-rule="evenodd">
        <g id="School-admin-left-menu-collapsed-teachers" transform="translate(-29.000000, -241.000000)" fill="#007FA3" fill-rule="nonzero">
            <g id="School-admin-left-menu" transform="translate(0.000000, 8.000000)">
                <g id="Group-12" transform="translate(0.000000, 0.955501)">
                    <g id="Group" transform="translate(29.000000, 176.679852)">
                        <g id="Group-44">
                            <g id="Group-7">
                                <g id="Group-6">
                                    <g id="Left-Menu">
                                        <g id="feature-list-collapsed-all">
                                            <g id="Group-31">
                                                <g id="study" transform="translate(0.000000, 56.122322)">
                                                    <path d="M9.13461538,0 C7.32124808,0 5.84615385,1.49213195 5.84615385,3.282106 C5.84615385,5.07208006 7.32124808,6.52814491 9.13461538,6.52814491 C10.9479827,6.52814491 12.4230769,5.07208006 12.4230769,3.282106 C12.4230769,1.49213195 10.9479827,0 9.13461538,0 Z" id="Shape"></path>
                                                    <path d="M10.22846,6.52814491 L9.13461538,6.52814491 L8.04077077,6.52814491 C7.26931862,6.52814491 6.52386351,6.75637021 5.84615385,7.14463281 C6.99720654,7.50009507 8.08098779,8.01204752 9.13461538,8.70419321 C10.1882794,8.01204752 11.2720242,7.50009507 12.4230769,7.14463281 C11.7453673,6.75637021 10.9999122,6.52814491 10.22846,6.52814491 Z" id="Shape"></path>
                                                    <path d="M17.9038462,10.1548921 C17.2984404,10.1548921 16.8076923,10.6420005 16.8076923,11.2429162 L16.8076923,13.4189645 C16.8076923,14.0198077 17.2984404,14.5069887 17.9038462,14.5069887 C18.5092519,14.5069887 19,14.0198077 19,13.4189645 L19,11.2429162 C19,10.6420005 18.5092519,10.1548921 17.9038462,10.1548921 Z" id="Shape"></path>
                                                    <path d="M1.09615385,10.1548921 C0.490748077,10.1548921 0,10.6420005 0,11.2429162 L0,13.4189645 C0,14.0198077 0.490748077,14.5069887 1.09615385,14.5069887 C1.70155962,14.5069887 2.19230769,14.0198077 2.19230769,13.4189645 L2.19230769,11.2429162 C2.19230769,10.6420005 1.70155962,10.1548921 1.09615385,10.1548921 Z" id="Shape"></path>
                                                    <path d="M2.03299307,7.97884378 C1.71713106,7.97884378 1.46153846,8.22135388 1.46153846,8.5210485 L1.46153846,9.06325323 C2.72220543,9.06325323 3.74735691,10.0359324 3.74735691,11.2320721 L3.74735691,13.400891 C3.74735691,14.5970308 2.72220543,15.5697099 1.46153846,15.5697099 L1.46153846,16.1119147 C1.46153846,16.4116093 1.71713106,16.6541194 2.03299307,16.6541194 C4.96268848,16.6541194 7.30523332,17.531985 9.5,18.8590853 L9.5,9.73537021 C7.29532811,8.53601335 4.9246677,7.97884378 2.03299307,7.97884378 Z" id="Shape"></path>
                                                    <path d="M18.2692308,9.06325323 L18.2692308,8.5210485 C18.2692308,8.22135388 18.0136382,7.97884378 17.6977762,7.97884378 C14.8061015,7.97884378 12.4354411,8.53601335 10.2307692,9.73537021 L10.2307692,18.8590853 C12.4255359,17.531985 14.7680808,16.6541194 17.6977762,16.6541194 C18.0136382,16.6541194 18.2692308,16.4116093 18.2692308,16.1119147 L18.2692308,15.5697099 C17.0085638,15.5697099 15.9834123,14.5970308 15.9834123,13.400891 L15.9834123,11.2320721 C15.9834123,10.0359324 17.0085638,9.06325323 18.2692308,9.06325323 Z" id="Shape"></path>
                                                </g>
                                            </g>
                                        </g>
                                    </g>
                                </g>
                            </g>
                        </g>
                    </g>
                </g>
            </g>
        </g>
    </g>
</svg>