<?xml version="1.0" encoding="UTF-8"?>
<svg width="19px" height="16px" viewBox="0 0 19 16" version="1.1" xmlns="http://www.w3.org/2000/svg" xmlns:xlink="http://www.w3.org/1999/xlink">
    <!-- Generator: Sketch 52.4 (67378) - http://www.bohemiancoding.com/sketch -->
    <title>Group 30</title>
    <desc>Created with Sketch.</desc>
    <g id="Symbols" stroke="none" stroke-width="1" fill="none" fill-rule="evenodd">
        <g id="School-admin-left-menu-collapsed-teachers" transform="translate(-29.000000, -186.000000)" fill="#007FA3">
            <g id="School-admin-left-menu" transform="translate(0.000000, 8.000000)">
                <g id="Group-12" transform="translate(0.000000, 0.955501)">
                    <g id="Group" transform="translate(29.000000, 176.679852)">
                        <g id="Group-44">
                            <g id="Group-7">
                                <g id="Group-6">
                                    <g id="Left-Menu">
                                        <g id="feature-list-collapsed-all">
                                            <g id="Group-31">
                                                <g id="Group-30" transform="translate(0.000000, 0.454934)">
                                                    <g id="Group-29">
                                                        <g id="teacher">
                                                            <ellipse id="Oval" fill-rule="nonzero" cx="4.40006099" cy="3.53486055" rx="3.5259748" ry="3.47911516"></ellipse>
                                                            <path d="M13.125,8.93325093 L16,7.98202513 L14,4.01169139 L9,5.92050569 L9,0 L19,0 L19,8.93325093 L13.125,8.93325093 Z" id="Combined-Shape"></path>
                                                            <polygon id="Shape" fill-rule="nonzero" points="13.6954279 5.65797004 7.94508367 7.53605181 5.68332392 7.53605181 4.33938995 9.07443607 3.03849009 7.53605181 0.197533602 7.96206591 0 14.3112075 1.21059879 14.3112075 1.26703696 15.4374996 7.62550252 15.4374996 7.94296724 9.34173903 14.2407618 7.28475918"></polygon>
                                                        </g>
                                                    </g>
                                                </g>
                                            </g>
                                        </g>
                                    </g>
                                </g>
                            </g>
                        </g>
                    </g>
                </g>
            </g>
        </g>
    </g>
</svg>