{
  "code": 200,
  "status": "success",
  "msg": "success",
  "data": {
    "status": "uploaded",
    "grades": {
      "E": {
        "minRange": 0,
        "maxRange": 20
      },
      "D": {
        "minRange": 20,
        "maxRange": 40
      },
      "C": {
        "minRange": 40,
        "maxRange": 60
      },
      "B": {
        "minRange": 60,
        "maxRange": 80
      },
      "A": {
        "minRange": 80,
        "maxRange": 100
      }
    },
    "totalMarkProperties": {
      "minScore": 0,
      "maxScore": 100,
      "roundMethod": "ceil",
      "isConvertable": true,
      "convertTo": 70,
      "methodOfAggregation": "sumofmarks",
      "percentileProps": 80
    },
    "rubricProperties": {
      "rubricOrder": {
        "order": "Exam|Viva|Presentation|Quiz"
      },
      "Exam": {
        "minScore": 0,
        "maxScore": 70,
        "roundMethod": "ceil",
        "isConvertable": true,
        "convertTo": 70,
        "includeInTotal": true,
        "methodOfAggregation": "sumofmarks",
        "percentileProps": 80
      },
      "Viva": {
        "minScore": 0,
        "maxScore": 10,
        "roundMethod": "floor",
        "isConvertable": true,
        "convertTo": 10,
        "includeInTotal": true,
        "methodOfAggregation": "sumofmarks",
        "percentileProps": 80
      },
      "Presentation": {
        "minScore": 0,
        "maxScore": 10,
        "roundMethod": "normal",
        "isConvertable": true,
        "convertTo": 10,
        "includeInTotal": true,
        "methodOfAggregation": "sumofmarks",
        "percentileProps": 80
      },
      "Quiz": {
        "minScore": 0,
        "maxScore": 10,
        "roundMethod": "normal",
        "isConvertable": true,
        "convertTo": 5,
        "includeInTotal": false,
        "methodOfAggregation": "sumofmarks",
        "percentileProps": 80
      }
    },
    
      "successList": {
        "columns": [
          {
            "Header": "Name",
            "accessor": "name",
            "Validation": {
              
            },
            "Element": {
              "tag": "h6",
              "elementProps": {
                
              }
            }
          },
          {
            "Header": "Roll No",
            "accessor": "rollNo",
            "Validation": {
              
            },
            "Element": {
              "tag": "h6",
              "elementProps": {
                
              }
            }
          },
          {
            "Header": "User Name",
            "accessor": "userName",
            "Validation": {
              
            },
            "Element": {
              "tag": "h6",
              "elementProps": {
                
              }
            }
          },
          {
            "Header": "Exam",
            "accessor": "Exam",
            "Validation": {
              "condition": {
                "min": "0",
                "max": "70",
                "enumerate": [
                  "AB",
                  "NT"
                ]
              }
            },
            "Element": {
              "tag": "h6",
              "elementProps": {
                
              }
            }
          },
          {
            "Header": "Viva",
            "accessor": "Viva",
            "Validation": {
              "condition": {
                "min": "0",
                "max": "10",
                "enumerate": [
                  "AB",
                  "NT"
                ]
              }
            },
            "Element": {
              "tag": "h6",
              "elementProps": {
                
              }
            }
          },
          {
            "Header": "Presentation",
            "accessor": "Presentation",
            "Validation": {
              "condition": {
                "min": "0",
                "max": "10",
                "enumerate": [
                  "AB",
                  "NT"
                ]
              }
            },
            "Element": {
              "tag": "h6",
              "elementProps": {
                
              }
            }
          },
          {
            "Header": "Quiz",
            "accessor": "Quiz",
            "Validation": {
              "condition": {
                "min": "0",
                "max": "10",
                "enumerate": [
                  "AB",
                  "NT"
                ]
              }
            },
            "Element": {
              "tag": "h6",
              "elementProps": {
                
              }
            }
          },
          {
            "Header": "Total mark",
            "accessor": "totalScore",
            "Validation": {
              
            },
            "Element": {
              "tag": "h6",
              "elementProps": {
                
              }
            }
          },
          {
            "Header": "Grade",
            "accessor": "grade",
            "Validation": {
              
            },
            "Element": {
              "tag": "h6",
              "elementProps": {
                
              }
            }
          }
        ],
        "data": [
          {
            "name": {
              "name": "Aastha Jain",
              "image": ""
            },
            "rollNo": {
              "value": "03"
            },
            "userName": {
              "value": "aastha_jain"
            },
            "Exam": {
              "id": "3798",
              "value": 0,
              "index": 0
            },
            "Viva": {
              "id": "3799",
              "value": 0,
              "index": 0
            },
            "Presentation": {
              "id": "3800",
              "value": 0,
              "index": 0
            },
            "Quiz": {
              "id": "3801",
              "value": 0,
              "index": 0
            },
            "totalScore": {
              "value": 0,
              "index": 0
            },
            "grade": {
              "value": "",
              "index": 0
            }
          },
          
         
          {
            "name": {
              "name": "Ibran Hussain",
              "image": ""
            },
            "rollNo": {
              "value": "98"
            },
            "userName": {
              "value": "IbrHussa"
            },
            "Exam": {
              "id": "3798",
              "value": 0,
              "index": 97
            },
            "Viva": {
              "id": "3799",
              "value": 0,
              "index": 97
            },
            "Presentation": {
              "id": "3800",
              "value": 0,
              "index": 97
            },
            "Quiz": {
              "id": "3801",
              "value": 0,
              "index": 97
            },
            "totalScore": {
              "value": 0,
              "index": 97
            },
            "grade": {
              "value": "",
              "index": 97
            }
          },
          {
            "name": {
              "name": "Pooja Arora",
              "image": ""
            },
            "rollNo": {
              "value": "99"
            },
            "userName": {
              "value": "PooArora"
            },
            "Exam": {
              "id": "3798",
              "value": 0,
              "index": 98
            },
            "Viva": {
              "id": "3799",
              "value": 0,
              "index": 98
            },
            "Presentation": {
              "id": "3800",
              "value": 0,
              "index": 98
            },
            "Quiz": {
              "id": "3801",
              "value": 0,
              "index": 98
            },
            "totalScore": {
              "value": 0,
              "index": 98
            },
            "grade": {
              "value": "",
              "index": 98
            }
          }
        ]
      },
      "failureList": {
        "columns": [
          
        ],
        "data": [
          
        ]
      }
    }
}