{
  "code": 200,
  "status": "success",
  "msg": "success",
  "data": {
    "successList": {
      "columns": [
        {
          "Header": "Name",
          "accessor": "name",
          "Validation": {
            
          }
        },
        {
          "Header": "Roll No",
          "accessor": "rollNo",
          "Validation": {
            
          }
        },
        {
          "Header": "User Name",
          "accessor": "userName",
          "Validation": {
            
          }
        },
        {
          "Header": "Exam",
          "accessor": "Exam",
          "Validation": {
            "condition": {
              "min": "0",
              "max": "70",
              "enumerate": [
                "AB",
                "NT"
              ]
            }
          }
        },
        {
          "Activites": [
            {
              "Header": "Viva",
              "accessor": "Viva",
              "Validation": {
                
              }
            },
            {
              "Header": "Viva1",
              "accessor": "Viva1",
              "Validation": {
                "condition": {
                  "min": "0",
                  "max": "10",
                  "enumerate": [
                    "AB",
                    "NT"
                  ]
                }
              }
            },
            {
              "Header": "Viva2",
              "accessor": "Viva2",
              "Validation": {
                "condition": {
                  "min": "0",
                  "max": "10",
                  "enumerate": [
                    "AB",
                    "NT"
                  ]
                }
              }
            }
          ]
        },
         {
          "Activites": [
            {
              "Header": "Presentation",
              "accessor": "Presentation",
              "Validation": {
                
              }
            },
             {
          "Header": "Presentation1",
          "accessor": "Presentation1",
          "Validation": {
            "condition": {
              "min": "0",
              "max": "10",
              "enumerate": [
                "AB",
                "NT"
              ]
            }
          }
        },
            {
          "Header": "Presentation2",
          "accessor": "Presentation2",
          "Validation": {
            "condition": {
              "min": "0",
              "max": "10",
              "enumerate": [
                "AB",
                "NT"
              ]
            }
          }
        }
          ]
        },
        {
          "Header": "Quiz",
          "accessor": "Quiz",
          "Validation": {
            "condition": {
              "min": "0",
              "max": "10",
              "enumerate": [
                "AB",
                "NT"
              ]
            }
          }
        },
        {
          "Header": "Total mark",
          "accessor": "totalScore",
          "Validation": {
            
          }
        },
        {
          "Header": "Grade",
          "accessor": "grade",
          "Validation": {
            
          }
        }
      ],
      "data": [
        {
          "name": {
            "name": "Aastha Jain",
            "image": ""
          },
          "rollNo": {
            "value": "03"
          },
          "userName": {
            "value": "aastha_jain"
          },
          "Exam": {
            "id": "3798",
            "value": "70",
            "index": 0
          },
          "ActivitesViva":{"Viva": {
            "value": 0
          },
          "Viva1": {
            "id": "37919",
            "value": 7,
            "index": 0
          },
          "Viva2": {
            "id": "37299",
            "value": 3,
            "index": 0
          }},
          "ActivitesPresentation":{"Presentation": {
            "id": "3800",
            "value": "10",
            "index": 0
          },
          "Presentation1": {
            "id": "3800",
            "value": "10",
            "index": 0
          },
          "Presentation2": {
            "id": "3800",
            "value": "10",
            "index": 0
          }},
          "Quiz": {
            "id": "3801",
            "value": "3",
            "index": 0
          },
          "totalScore": {
            "value": 81,
            "index": 0
          },
          "grade": {
            "value": "A",
            "index": 0
          }
        },
        {
          "name": {
            "name": "Ibran Hussain",
            "image": ""
          },
          "rollNo": {
            "value": "98"
          },
          "userName": {
            "value": "IbrHussa"
          },
          "Exam": {
            "id": "3798",
            "value": 0,
            "index": 1
          },
          "ActivitesViva":{"Viva": {
            "value": 0
          },
          "Viva1": {
            "id": "31799",
            "value": 10,
            "index": 1
          },
          "Viva2": {
            "id": "32799",
            "value": 5,
            "index": 1
          }},
           "ActivitesPresentation":{"Presentation": {
            "value": "10"
          },
          "Presentation1": {
            "id": "3800",
            "value": "4",
            "index": 1
          },
          "Presentation2": {
            "id": "3800",
            "value": "2",
            "index": 1
          }},
          "Quiz": {
            "id": "3801",
            "value": 0,
            "index": 1
          },
          "totalScore": {
            "value": 0,
            "index": 1
          },
          "grade": {
            "value": "E",
            "index": 1
          }
        },
        {
          "name": {
            "name": "Pooja Arora",
            "image": ""
          },
          "rollNo": {
            "value": "99"
          },
          "userName": {
            "value": "PooArora"
          },
          "Exam": {
            "id": "3798",
            "value": 0,
            "index": 2
          },
          "ActivitesViva":{"Viva": {
            "value": 0
          },
          "Viva1": {
            "id": "37959",
            "value": "30",
            "index": 2
          },
          "Viva2": {
            "id": "37996",
            "value": "0",
            "index": 2
          }},
          "ActivitesPresentation":{"Presentation": {
             "value": "10"
          },
          "Presentation1": {
            "id": "3800",
            "value": "10",
            "index": 2
          },
          "Presentation2": {
            "id": "3800",
            "value": "10",
            "index": 3
          }},
          "Quiz": {
            "id": "3801",
            "value": 9,
            "index": 2
          },
          "totalScore": {
            "value": 0,
            "index": 2
          },
          "grade": {
            "value": "E",
            "index": 2
          }
        },
        {
          "name": {
            "name": "Aastha Jain",
            "image": ""
          },
          "rollNo": {
            "value": "03"
          },
          "userName": {
            "value": "aastha_jain"
          },
          "Exam": {
            "id": "3798",
            "value": "70",
            "index": 3
          },
          "ActivitesViva":{"Viva": {
            "value": 0
          },
          "Viva1": {
            "id": "37919",
            "value": 7,
            "index": 3
          },
          "Viva2": {
            "id": "37299",
            "value": 3,
            "index": 3
          }},
           "ActivitesPresentation":{"Presentation": {
            "value": "10"
          },
          "Presentation1": {
            "id": "3800",
            "value": "10",
            "index": 3
          },
          "Presentation2": {
            "id": "3800",
            "value": "10",
            "index": 3
          }},
          "Quiz": {
            "id": "3801",
            "value": "3",
            "index": 3
          },
          "totalScore": {
            "value": 81,
            "index": 3
          },
          "grade": {
            "value": "A",
            "index": 3
          }
        }
      ]
    },
    "failureList": {
      "columns": [
        {
          "Header": "Name",
          "accessor": "name",
          "Validation": {
            
          },
          "Element": {
            "tag": "h6",
            "elementProps": {
              
            }
          }
        },
        {
          "Header": "Roll No",
          "accessor": "rollNo",
          "Validation": {
            
          },
          "Element": {
            "tag": "h6",
            "elementProps": {
              
            }
          }
        },
        {
          "Header": "User Name",
          "accessor": "userName",
          "Validation": {
            
          },
          "Element": {
            "tag": "h6",
            "elementProps": {
              
            }
          }
        },
        {
          "Header": "Exam",
          "accessor": "Exam",
          "Validation": {
            "condition": {
              "min": "0",
              "max": "70",
              "enumerate": [
                "AB",
                "NT"
              ]
            }
          },
          "Element": {
            "tag": "h6",
            "elementProps": {
              
            }
          }
        },
       {
          "Activites": [
            {
              "Header": "Viva",
              "accessor": "Viva",
              "Validation": {
                
              }
            },
            {
              "Header": "Viva1",
              "accessor": "Viva1",
              "Validation": {
                "condition": {
                  "min": "0",
                  "max": "10",
                  "enumerate": [
                    "AB",
                    "NT"
                  ]
                }
              }
            },
            {
              "Header": "Viva2",
              "accessor": "Viva2",
              "Validation": {
                "condition": {
                  "min": "0",
                  "max": "10",
                  "enumerate": [
                    "AB",
                    "NT"
                  ]
                }
              }
            }
          ]
        },
        {
          "Header": "Presentation",
          "accessor": "Presentation",
          "Validation": {
            
          },
          "Validation": {
            "condition": {
              "min": "0",
              "max": "10",
              "enumerate": [
                "AB",
                "NT"
              ]
            }
          },
          "Element": {
            "tag": "h6",
            "elementProps": {
              
            }
          }
        },
        {
          "Header": "Quiz",
          "accessor": "Quiz",
          "Validation": {
            "condition": {
              "min": "0",
              "max": "10",
              "enumerate": [
                "AB",
                "NT"
              ]
            }
          },
          "Element": {
            "tag": "h6",
            "elementProps": {
              
            }
          }
        },
        {
          "Header": "Total mark",
          "accessor": "totalScore",
          "Validation": {
            
          },
          "Element": {
            "tag": "h6",
            "elementProps": {
              
            }
          }
        },
        {
          "Header": "Grade",
          "accessor": "grade",
          "Validation": {
            
          },
          "Element": {
            "tag": "h6",
            "elementProps": {
              
            }
          }
        }
      ],
      "data": [
        
      ]
    },
    "status": "unlocked"
  }
}