{
  "columns": [{
    "Header": "Check Box",
    "accessor": "id",
    "Validation":{}
  },{
    "Header": "Name",
    "accessor": "name",
    "Validation":{}
  },{
    "Header": "Roll No",
    "accessor": "rollNo",
    "Validation":{}
  },{
    "Header": "Admission No",
    "accessor": "admissionNo",
    "Validation":{}
  },{
    "Header": "OverAll Grade",
    "accessor": "overallGrade",
    "Validation":{}
  },{
    "Header": "Generated On",
    "accessor": "generatedOn",
    "Validation":{}
  },{
    "Header": "Report Card",
    "accessor": "reportCard",
    "Validation":{}
  }
  ],
  "data": [
    {
      "id": {"value":"123","name":"Biakmuan Vj","link":"https://stg.pearsonmypedia.com/SchoolNetTeacherPortal/pdffiles/42928.pdf" },
      "name": {"name":"Biakmuan Vj","image":"images/avatar.svg"},
      "rollNo": {"value": "03"},
      "admissionNo": {"value":123},
      "overallGrade": {"value":"C"},
      "generatedOn": {"value":"25-02-2019"},
      "reportCard": {"name":"Biakmuan Vj","link":"https://stg.pearsonmypedia.com/SchoolNetTeacherPortal/pdffiles/42928.pdf","value": "42928.pdf"}
    },
    {
      "id": {"value":"124","name":"Chingremsang Chingremsang","link":"https://stg.pearsonmypedia.com/SchoolNetTeacherPortal/pdffiles/42974.pdf" },
      "name": {"name":"Chingremsang Chingremsang","image":"images/avatar.svg"},
      "rollNo": {"value": "04"},
      "admissionNo": {"value":124},
      "overallGrade": {"value":"E"},
      "generatedOn": {"value":"25-02-2019"},
      "reportCard": {"name":"Chingremsang Chingremsang","link":"https://stg.pearsonmypedia.com/SchoolNetTeacherPortal/pdffiles/42974.pdf","value": "42974.pdf"}
    },
    {
      "id": {"value":"125","name":"Chingsuankim Chingsuankim","link":"https://stg.pearsonmypedia.com/SchoolNetTeacherPortal/pdffiles/42980.pdf" },
      "name": {"name":"Chingsuankim Chingsuankim","image":"images/avatar.svg"},
      "rollNo": {"value": "05"},
      "admissionNo": {"value":125},
      "overallGrade": {"value":"A"},
      "generatedOn": {"value":"25-02-2019"},
      "reportCard": {"name":"Chingsuankim Chingsuankim","link":"https://stg.pearsonmypedia.com/SchoolNetTeacherPortal/pdffiles/42980.pdf","value": "42980.pdf"}
    },
    {
      "id": {"value":"126","name":"Chingthianlun Chingthianlun","link":"https://stg.pearsonmypedia.com/SchoolNetTeacherPortal/pdffiles/42988.pdf" },
      "name": {"name":"Chingthianlun Chingthianlun","image":"images/avatar.svg"},
      "rollNo": {"value": "06"},
      "admissionNo": {"value":126},
      "overallGrade": {"value":"C"},
      "generatedOn": {"value":"25-02-2019"},
      "reportCard": {"name":"Chingthianlun Chingthianlun","link":"https://stg.pearsonmypedia.com/SchoolNetTeacherPortal/pdffiles/42988.pdf","value": "42988.pdf"}
    },
    {
      "id": {"value":"127","name":"Chinsanglal Guite","link":"https://stg.pearsonmypedia.com/SchoolNetTeacherPortal/pdffiles/42999.pdf" },
      "name": {"name":"Chinsanglal Guite","image":"images/avatar.svg"},
      "rollNo": {"value": "07"},
      "admissionNo": {"value":127},
      "overallGrade": {"value":"A"},
      "generatedOn": {"value":"25-02-2019"},
      "reportCard": {"name":"Chinsanglal Guite","link":"https://stg.pearsonmypedia.com/SchoolNetTeacherPortal/pdffiles/42999.pdf","value": "42999.pdf"}
    },
    {
      "id": {"value":"128","name":"Christy Siamlalven","link":"https://stg.pearsonmypedia.com/SchoolNetTeacherPortal/pdffiles/43006.pdf" },
      "name": {"name":"Christy Siamlalven","image":"images/avatar.svg"},
      "rollNo": {"value": "08"},
      "admissionNo": {"value":128},
      "overallGrade": {"value":"C"},
      "generatedOn": {"value":"25-02-2019"},
      "reportCard": {"name":"Christy Siamlalven","link":"https://stg.pearsonmypedia.com/SchoolNetTeacherPortal/pdffiles/43006.pdf","value": "43006.pdf"}
    },
    {
      "id": {"value":"128","name":"Clinton Ngurmuanding","link":"https://stg.pearsonmypedia.com/SchoolNetTeacherPortal/pdffiles/43010.pdf" },
      "name": {"name":"Clinton Ngurmuanding","image":"images/avatar.svg"},
      "rollNo": {"value": "09"},
      "admissionNo": {"value":128},
      "overallGrade": {"value":"D"},
      "generatedOn": {"value":"25-02-2019"},
      "reportCard": {"name":"Clinton Ngurmuanding","link":"https://stg.pearsonmypedia.com/SchoolNetTeacherPortal/pdffiles/43010.pdf","value": "43010.pdf"}
    },
    {
      "id": {"value":"129","name":"Damhoihkim Damhoihkim","link":"https://stg.pearsonmypedia.com/SchoolNetTeacherPortal/pdffiles/43014.pdf" },
      "name": {"name":"Damhoihkim Damhoihkim","image":"images/avatar.svg"},
      "rollNo": {"value": "10"},
      "admissionNo": {"value":129},
      "overallGrade": {"value":"E"},
      "generatedOn": {"value":"25-02-2019"},
      "reportCard": {"name":"Damhoihkim Damhoihkim","link":"https://stg.pearsonmypedia.com/SchoolNetTeacherPortal/pdffiles/43014.pdf","value": "43014.pdf"}
    },
    {
      "id": {"value":"130","name":"Dimngaihnem Dimngaihnem","link":"https://stg.pearsonmypedia.com/SchoolNetTeacherPortal/pdffiles/43021.pdf" },
      "name": {"name":"Dimngaihnem Dimngaihnem","image":"images/avatar.svg"},
      "rollNo": {"value": "11"},
      "admissionNo": {"value":130},
      "overallGrade": {"value":"A"},
      "generatedOn": {"value":"25-02-2019"},
      "reportCard": {"name":"Dimngaihnem Dimngaihnem","link":"https://stg.pearsonmypedia.com/SchoolNetTeacherPortal/pdffiles/43021.pdf","value": "43021.pdf"}
    },
    {
      "id": {"value":"131","name":"Jacinta Jacinta","link":"https://stg.pearsonmypedia.com/SchoolNetTeacherPortal/pdffiles/43072.pdf" },
      "name": {"name":"Jacinta Jacinta","image":"images/avatar.svg"},
      "rollNo": {"value": "12"},
      "admissionNo": {"value":131},
      "overallGrade": {"value":"C"},
      "generatedOn": {"value":"25-02-2019"},
      "reportCard": {"name":"Jacinta Jacinta","link":"https://stg.pearsonmypedia.com/SchoolNetTeacherPortal/pdffiles/43072.pdf","value": "43072.pdf"}
    },
    {
      "id": {"value":"132","name":"Jamremsiam Jamremsiam","link":"https://stg.pearsonmypedia.com/SchoolNetTeacherPortal/pdffiles/43077.pdf" },
      "name": {"name":"Jamremsiam Jamremsiam","image":"images/avatar.svg"},
      "rollNo": {"value": "13"},
      "admissionNo": {"value":132},
      "overallGrade": {"value":"B"},
      "generatedOn": {"value":"25-02-2019"},
      "reportCard": {"name":"Jamremsiam Jamremsiam","link":"https://stg.pearsonmypedia.com/SchoolNetTeacherPortal/pdffiles/43077.pdf","value": "43077.pdf"}
    },
    {
      "id": {"value":"133","name":"Josephine Hoihzou","link":"https://stg.pearsonmypedia.com/SchoolNetTeacherPortal/pdffiles/43092.pdf" },
      "name": {"name":"Josephine Hoihzou","image":"images/avatar.svg"},
      "rollNo": {"value": "14"},
      "admissionNo": {"value":133},
      "overallGrade": {"value":"D"},
      "generatedOn": {"value":"25-02-2019"},
      "reportCard": {"name":"Josephine Hoihzou","link":"https://stg.pearsonmypedia.com/SchoolNetTeacherPortal/pdffiles/43092.pdf","value": "43092.pdf"}
    },
    {
      "id": {"value":"134","name":"Kapsuanmung Guite","link":"https://stg.pearsonmypedia.com/SchoolNetTeacherPortal/pdffiles/43102.pdf" },
      "name": {"name":"Kapsuanmung Guite","image":"images/avatar.svg"},
      "rollNo": {"value": "15"},
      "admissionNo": {"value":134},
      "overallGrade": {"value":"C"},
      "generatedOn": {"value":"25-02-2019"},
      "reportCard": {"name":"Kapsuanmung Guite","link":"https://stg.pearsonmypedia.com/SchoolNetTeacherPortal/pdffiles/43102.pdf","value": "43102.pdf"}
    },
    {
      "id": {"value":"135","name":"Kumari Kumari","link":"https://stg.pearsonmypedia.com/SchoolNetTeacherPortal/pdffiles/43141.pdf" },
      "name": {"name":"Kumari Kumari","image":"images/avatar.svg"},
      "rollNo": {"value": "16"},
      "admissionNo": {"value":135},
      "overallGrade": {"value":"C"},
      "generatedOn": {"value":"25-02-2019"},
      "reportCard": {"name":"Kumari Kumari","link":"https://stg.pearsonmypedia.com/SchoolNetTeacherPortal/pdffiles/43141.pdf","value": "43141.pdf"}
    },
    {
      "id": {"value":"136","name":"Lalgousiam Lalgousiam","link":"https://stg.pearsonmypedia.com/SchoolNetTeacherPortal/pdffiles/1155568.pdf" },
      "name": {"name":"Lalgousiam Lalgousiam","image":"images/avatar.svg"},
      "rollNo": {"value": "17"},
      "admissionNo": {"value":136},
      "overallGrade": {"value":"B"},
      "generatedOn": {"value":"25-02-2019"},
      "reportCard": {"name":"Lalgousiam Lalgousiam","link":"https://stg.pearsonmypedia.com/SchoolNetTeacherPortal/pdffiles/43146.pdf","value": "43146.pdf"}
    },
    {
      "id": {"value":"137","name":"Lalrammawi Lalrammawi","link":"https://stg.pearsonmypedia.com/SchoolNetTeacherPortal/pdffiles/43149.pdf" },
      "name": {"name":"Lalrammawi Lalrammawi","image":"images/avatar.svg"},
      "rollNo": {"value": "18"},
      "admissionNo": {"value":137},
      "overallGrade": {"value":"A"},
      "generatedOn": {"value":"25-02-2019"},
      "reportCard": {"name":"Lalrammawi Lalrammawi","link":"https://stg.pearsonmypedia.com/SchoolNetTeacherPortal/pdffiles/43149.pdf","value": "43149.pdf"}
    },
    {
      "id": {"value":"138","name":"Lalsuanthang Lalsuanthang","link":"https://stg.pearsonmypedia.com/SchoolNetTeacherPortal/pdffiles/43154.pdf" },
      "name": {"name":"Lalsuanthang Lalsuanthang","image":"images/avatar.svg"},
      "rollNo": {"value": "19"},
      "admissionNo": {"value":138},
      "overallGrade": {"value":"B"},
      "generatedOn": {"value":"25-02-2019"},
      "reportCard": {"name":"Lalsuanthang Lalsuanthang","link":"https://stg.pearsonmypedia.com/SchoolNetTeacherPortal/pdffiles/43154.pdf","value": "43154.pdf"}
    },
    {
      "id": {"value":"139","name":"Lalzoukim Jiji","link":"https://stg.pearsonmypedia.com/SchoolNetTeacherPortal/pdffiles/43156.pdf" },
      "name": {"name":"Lalzoukim Jiji","image":"images/avatar.svg"},
      "rollNo": {"value": "20"},
      "admissionNo": {"value":139},
      "overallGrade": {"value":"C"},
      "generatedOn": {"value":"25-02-2019"},
      "reportCard": {"name":"Lalzoukim Jiji","link":"https://stg.pearsonmypedia.com/SchoolNetTeacherPortal/pdffiles/43156.pdf","value": "43156.pdf"}
    },
    {
      "id": {"value":"140","name":"Liangoumuan T","link":"https://stg.pearsonmypedia.com/SchoolNetTeacherPortal/pdffiles/43167.pdf" },
      "name": {"name":"Liangoumuan T","image":"images/avatar.svg"},
      "rollNo": {"value": "21"},
      "admissionNo": {"value":140},
      "overallGrade": {"value":"D"},
      "generatedOn": {"value":"25-02-2019"},
      "reportCard": {"name":"Liangoumuan T","link":"https://stg.pearsonmypedia.com/SchoolNetTeacherPortal/pdffiles/43167.pdf","value": "43167.pdf"}
    },
    {
      "id": {"value":"141","name":"Liangousang N","link":"https://stg.pearsonmypedia.com/SchoolNetTeacherPortal/pdffiles/43169.pdf" },
      "name": {"name":"Liangousang N","image":"images/avatar.svg"},
      "rollNo": {"value": "22"},
      "admissionNo": {"value":141},
      "overallGrade": {"value":"A"},
      "generatedOn": {"value":"25-02-2019"},
      "reportCard": {"name":"Liangousang N","link":"https://stg.pearsonmypedia.com/SchoolNetTeacherPortal/pdffiles/43169.pdf","value": "43169.pdf"}
    },
    {
      "id": {"value":"142","name":"Lianmuanlal Lianmuanlal","link":"https://stg.pearsonmypedia.com/SchoolNetTeacherPortal/pdffiles/43182.pdf" },
      "name": {"name":"Lianmuanlal Lianmuanlal","image":"images/avatar.svg"},
      "rollNo": {"value": "23"},
      "admissionNo": {"value":142},
      "overallGrade": {"value":"E"},
      "generatedOn": {"value":"25-02-2019"},
      "reportCard": {"name":"Lianmuanlal Lianmuanlal","link":"https://stg.pearsonmypedia.com/SchoolNetTeacherPortal/pdffiles/43182.pdf","value": "43182.pdf"}
    },
    {
      "id": {"value":"143","name":"Lianmuansang Songput","link":"https://stg.pearsonmypedia.com/SchoolNetTeacherPortal/pdffiles/43184.pdf" },
      "name": {"name":"Lianmuansang Songput","image":"images/avatar.svg"},
      "rollNo": {"value": "24"},
      "admissionNo": {"value":143},
      "overallGrade": {"value":"D"},
      "generatedOn": {"value":"25-02-2019"},
      "reportCard": {"name":"Lianmuansang Songput","link":"https://stg.pearsonmypedia.com/SchoolNetTeacherPortal/pdffiles/43184.pdf","value": "43184.pdf"}
    },
    {
      "id": {"value":"144","name":"Luaimalsawm Luaimalsawm","link":"https://stg.pearsonmypedia.com/SchoolNetTeacherPortal/pdffiles/43193.pdf" },
      "name": {"name":"Luaimalsawm Luaimalsawm","image":"images/avatar.svg"},
      "rollNo": {"value": "25"},
      "admissionNo": {"value":144},
      "overallGrade": {"value":"C"},
      "generatedOn": {"value":"25-02-2019"},
      "reportCard": {"name":"Luaimalsawm Luaimalsawm","link":"https://stg.pearsonmypedia.com/SchoolNetTeacherPortal/pdffiles/43193.pdf","value": "43193.pdf"}
    },
    {
      "id": {"value":"145","name":"Lunbiakliankhual Lunbiakliankhual","link":"https://stg.pearsonmypedia.com/SchoolNetTeacherPortal/pdffiles/43195.pdf" },
      "name": {"name":"Lunbiakliankhual Lunbiakliankhual","image":"images/avatar.svg"},
      "rollNo": {"value": "26"},
      "admissionNo": {"value":145},
      "overallGrade": {"value":"B"},
      "generatedOn": {"value":"25-02-2019"},
      "reportCard": {"name":"Lunbiakliankhual Lunbiakliankhual","link":"https://stg.pearsonmypedia.com/SchoolNetTeacherPortal/pdffiles/43195.pdf","value": "43195.pdf"}
    },
    {
      "id": {"value":"146","name":"Maman Tonsing","link":"https://stg.pearsonmypedia.com/SchoolNetTeacherPortal/pdffiles/43200.pdf" },
      "name": {"name":"Maman Tonsing","image":"images/avatar.svg"},
      "rollNo": {"value": "27"},
      "admissionNo": {"value":146},
      "overallGrade": {"value":"C"},
      "generatedOn": {"value":"25-02-2019"},
      "reportCard": {"name":"Maman Tonsing","link":"https://stg.pearsonmypedia.com/SchoolNetTeacherPortal/pdffiles/43200.pdf","value": "43200.pdf"}
    },
    {
      "id": {"value":"147","name":"Manbiakhoih Manbiakhoih","link":"https://stg.pearsonmypedia.com/SchoolNetTeacherPortal/pdffiles/43202.pdf" },
      "name": {"name":"Manbiakhoih Manbiakhoih","image":"images/avatar.svg"},
      "rollNo": {"value": "28"},
      "admissionNo": {"value":147},
      "overallGrade": {"value":"B"},
      "generatedOn": {"value":"25-02-2019"},
      "reportCard": {"name":"Manbiakhoih Manbiakhoih","link":"https://stg.pearsonmypedia.com/SchoolNetTeacherPortal/pdffiles/43202.pdf","value": "43202.pdf"}
    },
    {
      "id": {"value":"148","name":"Manglalsiam Manglalsiam","link":"https://stg.pearsonmypedia.com/SchoolNetTeacherPortal/pdffiles/43214.pdf" },
      "name": {"name":"Manglalsiam Manglalsiam","image":"images/avatar.svg"},
      "rollNo": {"value": "29"},
      "admissionNo": {"value":148},
      "overallGrade": {"value":"D"},
      "generatedOn": {"value":"25-02-2019"},
      "reportCard": {"name":"Manglalsiam Manglalsiam","link":"https://stg.pearsonmypedia.com/SchoolNetTeacherPortal/pdffiles/43214.pdf","value": "43214.pdf"}
    },
    {
      "id": {"value":"149","name":"Mangthankhum Mangthankhum","link":"https://stg.pearsonmypedia.com/SchoolNetTeacherPortal/pdffiles/43216.pdf" },
      "name": {"name":"Mangthankhum Mangthankhum","image":"images/avatar.svg"},
      "rollNo": {"value": "30"},
      "admissionNo": {"value":149},
      "overallGrade": {"value":"B"},
      "generatedOn": {"value":"25-02-2019"},
      "reportCard": {"name":"Mangthankhum Mangthankhum","link":"https://stg.pearsonmypedia.com/SchoolNetTeacherPortal/pdffiles/43216.pdf","value": "43216.pdf"}
    },
    {
      "id": {"value":"150","name":"Marvin Vumminthang","link":"https://stg.pearsonmypedia.com/SchoolNetTeacherPortal/pdffiles/43224.pdf" },
      "name": {"name":"Marvin Vumminthang","image":"images/avatar.svg"},
      "rollNo": {"value": "31"},
      "admissionNo": {"value":150},
      "overallGrade": {"value":"D"},
      "generatedOn": {"value":"25-02-2019"},
      "reportCard": {"name":"Marvin Vumminthang","link":"https://stg.pearsonmypedia.com/SchoolNetTeacherPortal/pdffiles/43224.pdf","value": "43224.pdf"}
    },
    {
      "id": {"value":"151","name":"Muansangzual Muansangzual","link":"https://stg.pearsonmypedia.com/SchoolNetTeacherPortal/pdffiles/43256.pdf" },
      "name": {"name":"Muansangzual Muansangzual","image":"images/avatar.svg"},
      "rollNo": {"value": "32"},
      "admissionNo": {"value":151},
      "overallGrade": {"value":"E"},
      "generatedOn": {"value":"25-02-2019"},
      "reportCard": {"name":"Muansangzual Muansangzual","link":"https://stg.pearsonmypedia.com/SchoolNetTeacherPortal/pdffiles/43256.pdf","value": "43256.pdf"}
    },
    {
      "id": {"value":"152","name":"Munggoumang Munggoumang","link":"https://stg.pearsonmypedia.com/SchoolNetTeacherPortal/pdffiles/43264.pdf" },
      "name": {"name":"Munggoumang Munggoumang","image":"images/avatar.svg"},
      "rollNo": {"value": "33"},
      "admissionNo": {"value":152},
      "overallGrade": {"value":"E"},
      "generatedOn": {"value":"25-02-2019"},
      "reportCard": {"name":"Munggoumang Munggoumang","link":"https://stg.pearsonmypedia.com/SchoolNetTeacherPortal/pdffiles/43264.pdf","value": "43264.pdf"}
    },
    {
      "id": {"value":"153","name":"Ngaikhannem Ngaikhannem","link":"https://stg.pearsonmypedia.com/SchoolNetTeacherPortal/pdffiles/43281.pdf" },
      "name": {"name":"Ngaikhannem Ngaikhannem","image":"images/avatar.svg"},
      "rollNo": {"value": "34"},
      "admissionNo": {"value":153},
      "overallGrade": {"value":"B"},
      "generatedOn": {"value":"25-02-2019"},
      "reportCard": {"name":"Ngaikhannem Ngaikhannem","link":"https://stg.pearsonmypedia.com/SchoolNetTeacherPortal/pdffiles/43281.pdf","value": "43281.pdf"}
    },
    {
      "id": {"value":"154","name":"Niang Dina","link":"https://stg.pearsonmypedia.com/SchoolNetTeacherPortal/pdffiles/43297.pdf" },
      "name": {"name":"Niang Dina","image":"images/avatar.svg"},
      "rollNo": {"value": "35"},
      "admissionNo": {"value":154},
      "overallGrade": {"value":"E"},
      "generatedOn": {"value":"25-02-2019"},
      "reportCard": {"name":"Niang Dina","link":"https://stg.pearsonmypedia.com/SchoolNetTeacherPortal/pdffiles/43297.pdf","value": "43297.pdf"}
    },
    {
      "id": {"value":"155","name":"Nienglalchoi Nienglalchoi","link":"https://stg.pearsonmypedia.com/SchoolNetTeacherPortal/pdffiles/43317.pdf" },
      "name": {"name":"Nienglalchoi Nienglalchoi","image":"images/avatar.svg"},
      "rollNo": {"value": "36"},
      "admissionNo": {"value":155},
      "overallGrade": {"value":"C"},
      "generatedOn": {"value":"25-02-2019"},
      "reportCard": {"name":"Nienglalchoi Nienglalchoi","link":"https://stg.pearsonmypedia.com/SchoolNetTeacherPortal/pdffiles/43317.pdf","value": "43317.pdf"}
    },
    {
      "id": {"value":"156","name":"Obed Hensawmlun","link":"https://stg.pearsonmypedia.com/SchoolNetTeacherPortal/pdffiles/43322.pdf" },
      "name": {"name":"Obed Hensawmlun","image":"images/avatar.svg"},
      "rollNo": {"value": "37"},
      "admissionNo": {"value":156},
      "overallGrade": {"value":"D"},
      "generatedOn": {"value":"25-02-2019"},
      "reportCard": {"name":"Obed Hensawmlun","link":"https://stg.pearsonmypedia.com/SchoolNetTeacherPortal/pdffiles/43322.pdf","value": "43322.pdf"}
    },
    {
      "id": {"value":"157","name":"Paukhanthang Paukhanthang","link":"https://stg.pearsonmypedia.com/SchoolNetTeacherPortal/pdffiles/43325.pdf" },
      "name": {"name":"Paukhanthang Paukhanthang","image":"images/avatar.svg"},
      "rollNo": {"value": "38"},
      "admissionNo": {"value":157},
      "overallGrade": {"value":"D"},
      "generatedOn": {"value":"25-02-2019"},
      "reportCard": {"name":"Paukhanthang Paukhanthang","link":"https://stg.pearsonmypedia.com/SchoolNetTeacherPortal/pdffiles/43325.pdf","value": "43325.pdf"}
    },
    {
      "id": {"value":"158","name":"Pauthiangou T","link":"https://stg.pearsonmypedia.com/SchoolNetTeacherPortal/pdffiles/43335.pdf" },
      "name": {"name":"Pauthiangou T","image":"images/avatar.svg"},
      "rollNo": {"value": "39"},
      "admissionNo": {"value":158},
      "overallGrade": {"value":"E"},
      "generatedOn": {"value":"25-02-2019"},
      "reportCard": {"name":"Pauthiangou T","link":"https://stg.pearsonmypedia.com/SchoolNetTeacherPortal/pdffiles/43335.pdf","value": "43335.pdf"}
    },
    {
      "id": {"value":"159","name":"Pianglianmang Pianglianmang","link":"https://stg.pearsonmypedia.com/SchoolNetTeacherPortal/pdffiles/43337.pdf" },
      "name": {"name":"Pianglianmang Pianglianmang","image":"images/avatar.svg"},
      "rollNo": {"value": "40"},
      "admissionNo": {"value":159},
      "overallGrade": {"value":"E"},
      "generatedOn": {"value":"25-02-2019"},
      "reportCard": {"name":"Pianglianmang Pianglianmang","link":"https://stg.pearsonmypedia.com/SchoolNetTeacherPortal/pdffiles/43337.pdf","value": "43337.pdf"}
    },
    {
      "id": {"value":"160","name":"Rose Gounemsiam","link":"https://stg.pearsonmypedia.com/SchoolNetTeacherPortal/pdffiles/43346.pdf" },
      "name": {"name":"Rose Gounemsiam","image":"images/avatar.svg"},
      "rollNo": {"value": "41"},
      "admissionNo": {"value":160},
      "overallGrade": {"value":"A"},
      "generatedOn": {"value":"25-02-2019"},
      "reportCard": {"name":"Rose Gounemsiam","link":"https://stg.pearsonmypedia.com/SchoolNetTeacherPortal/pdffiles/43346.pdf","value": "43346.pdf"}
    },
    {
      "id": {"value":"161","name":"Sangtanthuam Tonsing","link":"https://stg.pearsonmypedia.com/SchoolNetTeacherPortal/pdffiles/43355.pdf" },
      "name": {"name":"Sangtanthuam Tonsing","image":"images/avatar.svg"},
      "rollNo": {"value": "42"},
      "admissionNo": {"value":161},
      "overallGrade": {"value":"C"},
      "generatedOn": {"value":"25-02-2019"},
      "reportCard": {"name":"Sangtanthuam Tonsing","link":"https://stg.pearsonmypedia.com/SchoolNetTeacherPortal/pdffiles/43355.pdf","value": "43355.pdf"}
    },
    {
      "id": {"value":"162","name":"Siamminlian Siamminlian","link":"https://stg.pearsonmypedia.com/SchoolNetTeacherPortal/pdffiles/43365.pdf" },
      "name": {"name":"Siamminlian Siamminlian","image":"images/avatar.svg"},
      "rollNo": {"value": "43"},
      "admissionNo": {"value":162},
      "overallGrade": {"value":"D"},
      "generatedOn": {"value":"25-02-2019"},
      "reportCard": {"name":"Siamminlian Siamminlian","link":"https://stg.pearsonmypedia.com/SchoolNetTeacherPortal/pdffiles/43365.pdf","value": "43365.pdf"}
    },
    {
      "id": {"value":"163","name":"Singlian John H","link":"https://stg.pearsonmypedia.com/SchoolNetTeacherPortal/pdffiles/43372.pdf" },
      "name": {"name":"Singlian John H","image":"images/avatar.svg"},
      "rollNo": {"value": "44"},
      "admissionNo": {"value":163},
      "overallGrade": {"value":"E"},
      "generatedOn": {"value":"25-02-2019"},
      "reportCard": {"name":"Singlian John H","link":"https://stg.pearsonmypedia.com/SchoolNetTeacherPortal/pdffiles/43372.pdf","value": "43372.pdf"}
    },
    {
      "id": {"value":"164","name":"Steven Genminlian","link":"https://stg.pearsonmypedia.com/SchoolNetTeacherPortal/pdffiles/43382.pdf" },
      "name": {"name":"Steven Genminlian","image":"images/avatar.svg"},
      "rollNo": {"value": "45"},
      "admissionNo": {"value":164},
      "overallGrade": {"value":"D"},
      "generatedOn": {"value":"25-02-2019"},
      "reportCard": {"name":"Steven Genminlian","link":"https://stg.pearsonmypedia.com/SchoolNetTeacherPortal/pdffiles/43382.pdf","value": "43382.pdf"}
    },
    {
      "id": {"value":"165","name":"Suanliansang T","link":"https://stg.pearsonmypedia.com/SchoolNetTeacherPortal/pdffiles/43388.pdf" },
      "name": {"name":"Suanliansang T","image":"images/avatar.svg"},
      "rollNo": {"value": "46"},
      "admissionNo": {"value":165},
      "overallGrade": {"value":"E"},
      "generatedOn": {"value":"25-02-2019"},
      "reportCard": {"name":"Suanliansang T","link":"https://stg.pearsonmypedia.com/SchoolNetTeacherPortal/pdffiles/43388.pdf","value": "43388.pdf"}
    },
    {
      "id": {"value":"166","name":"Thanghaumuan Tombing","link":"https://stg.pearsonmypedia.com/SchoolNetTeacherPortal/pdffiles/43402.pdf" },
      "name": {"name":"Thanghaumuan Tombing","image":"images/avatar.svg"},
      "rollNo": {"value": "47"},
      "admissionNo": {"value":166},
      "overallGrade": {"value":"D"},
      "generatedOn": {"value":"25-02-2019"},
      "reportCard": {"name":"Thanghaumuan Tombing","link":"https://stg.pearsonmypedia.com/SchoolNetTeacherPortal/pdffiles/43402.pdf","value": "43402.pdf"}
    },
    {
      "id": {"value":"167","name":"Thangliankhup B","link":"https://stg.pearsonmypedia.com/SchoolNetTeacherPortal/pdffiles/43411.pdf" },
      "name": {"name":"Thangliankhup B","image":"images/avatar.svg"},
      "rollNo": {"value": "48"},
      "admissionNo": {"value":167},
      "overallGrade": {"value":"B"},
      "generatedOn": {"value":"25-02-2019"},
      "reportCard": {"name":"Thangliankhup B","link":"https://stg.pearsonmypedia.com/SchoolNetTeacherPortal/pdffiles/43411.pdf","value": "43411.pdf"}
    },
    {
      "id": {"value":"168","name":"Thangsianmung Thangsianmung","link":"https://stg.pearsonmypedia.com/SchoolNetTeacherPortal/pdffiles/43420.pdf" },
      "name": {"name":"Thangsianmung Thangsianmung","image":"images/avatar.svg"},
      "rollNo": {"value": "49"},
      "admissionNo": {"value":168},
      "overallGrade": {"value":"C"},
      "generatedOn": {"value":"25-02-2019"},
      "reportCard": {"name":"Thangsianmung Thangsianmung","link":"https://stg.pearsonmypedia.com/SchoolNetTeacherPortal/pdffiles/43420.pdf","value": "43420.pdf"}
    },
    {
      "id": {"value":"169","name":"Vengelsiam Vengelsiam","link":"https://stg.pearsonmypedia.com/SchoolNetTeacherPortal/pdffiles/43433.pdf" },
      "name": {"name":"Vengelsiam Vengelsiam","image":"images/avatar.svg"},
      "rollNo": {"value": "50"},
      "admissionNo": {"value":169},
      "overallGrade": {"value":"E"},
      "generatedOn": {"value":"25-02-2019"},
      "reportCard": {"name":"Vengelsiam Vengelsiam","link":"https://stg.pearsonmypedia.com/SchoolNetTeacherPortal/pdffiles/43433.pdf","value": "43433.pdf"}
    },
    {
      "id": {"value":"170","name":"Vungremhoih Vungremhoih","link":"https://stg.pearsonmypedia.com/SchoolNetTeacherPortal/pdffiles/43443.pdf" },
      "name": {"name":"Vungremhoih Vungremhoih","image":"images/avatar.svg"},
      "rollNo": {"value": "51"},
      "admissionNo": {"value":170},
      "overallGrade": {"value":"B"},
      "generatedOn": {"value":"25-02-2019"},
      "reportCard": {"name":"Vungremhoih Vungremhoih","link":"https://stg.pearsonmypedia.com/SchoolNetTeacherPortal/pdffiles/43443.pdf","value": "43443.pdf"}
    },
    {
      "id": {"value":"171","name":"Vungthianmuang Vungthianmuang","link":"https://stg.pearsonmypedia.com/SchoolNetTeacherPortal/pdffiles/241934.pdf" },
      "name": {"name":"Vungthianmuang Vungthianmuang","image":"images/avatar.svg"},
      "rollNo": {"value": "52"},
      "admissionNo": {"value":171},
      "overallGrade": {"value":"D"},
      "generatedOn": {"value":"25-02-2019"},
      "reportCard": {"name":"Vungthianmuang Vungthianmuang","link":"https://stg.pearsonmypedia.com/SchoolNetTeacherPortal/pdffiles/241934.pdf","value": "241934.pdf"}
    },
    {
      "id": {"value":"172","name":"Mangkhankhual Mangkhankhual","link":"https://stg.pearsonmypedia.com/SchoolNetTeacherPortal/pdffiles/241935.pdf" },
      "name": {"name":"Mangkhankhual Mangkhankhual","image":"images/avatar.svg"},
      "rollNo": {"value": "53"},
      "admissionNo": {"value":172},
      "overallGrade": {"value":"A"},
      "generatedOn": {"value":"25-02-2019"},
      "reportCard": {"name":"Mangkhankhual Mangkhankhual","link":"https://stg.pearsonmypedia.com/SchoolNetTeacherPortal/pdffiles/241935.pdf","value": "241935.pdf"}
    }
  ]
}
